<?xml version="1.0" encoding="utf-8"?>
<!-- Generator: Adobe Illustrator 22.1.0, SVG Export Plug-In . SVG Version: 6.00 Build 0)  -->
<svg version="1.1" id="圖層_1" xmlns="http://www.w3.org/2000/svg" xmlns:xlink="http://www.w3.org/1999/xlink" x="0px" y="0px"
	 viewBox="0 0 112.2 175.7" style="enable-background:new 0 0 112.2 175.7;" xml:space="preserve">
<style type="text/css">
	.st0{fill:#AEE23B;}
	.st1{fill:#FFFFFF;}
</style>
<title>資產 1</title>
<g id="圖層_2_1_">
	<g id="圖層_4">
		<rect x="24" y="73.4" class="st0" width="64.2" height="19.2"/>
		<rect x="24" y="102.5" class="st0" width="64.2" height="19.2"/>
		<rect x="24" y="131.6" class="st0" width="64.2" height="19.2"/>
		<path class="st1" d="M101.4,19H86.6v-8.2c0-6-4.8-10.8-10.8-10.8H36.5c-6,0-10.8,4.8-10.8,10.8V19H10.8C4.8,19,0,23.9,0,29.9
			c0,0,0,0,0,0v135c0,6,4.8,10.8,10.8,10.8c0,0,0,0,0,0h90.6c6,0,10.8-4.8,10.8-10.8l0,0v-135C112.2,23.9,107.4,19.1,101.4,19z
			 M105,164.9c0,2-1.6,3.6-3.6,3.6c0,0,0,0,0,0H10.8c-2,0-3.6-1.6-3.6-3.6l0,0v-135c0-2,1.6-3.6,3.6-3.6c0,0,0,0,0,0h22V10.8
			c0-2,1.6-3.6,3.6-3.6h39.3c2,0,3.6,1.6,3.6,3.6v15.4h22c2,0,3.6,1.6,3.6,3.6L105,164.9z"/>
	</g>
</g>
</svg>
